module glog

go 1.19

require (
	github.com/dgrijalva/jwt-go v3.2.0+incompatible
	github.com/gin-gonic/gin v1.8.1
	github.com/go-playground/validator/v10 v10.11.0 // indirect
	github.com/golang/snappy v0.0.4 // indirect
	github.com/json-iterator/go v1.1.12 // indirect
	github.com/klauspost/compress v1.15.9 // indirect
	github.com/leodido/go-urn v1.2.1 // indirect
	github.com/lu4p/binclude v0.0.0-20210217002309-f5cbd98bb200
	github.com/mattn/go-isatty v0.0.16 // indirect
	github.com/modern-go/concurrent v0.0.0-20180306012644-bacd9c7ef1dd // indirect
	github.com/modern-go/reflect2 v1.0.2 // indirect
	github.com/patrickmn/go-cache v2.1.0+incompatible
	github.com/rs/xid v1.4.0
	github.com/youmark/pkcs8 v0.0.0-20201027041543-1326539a0a0a // indirect
	go.mongodb.org/mongo-driver v1.10.1
	go.uber.org/atomic v1.10.0 // indirect
	go.uber.org/multierr v1.8.0 // indirect
	go.uber.org/zap v1.23.0
	golang.org/x/crypto v0.0.0-20220829220503-c86fa9a7ed90
	golang.org/x/sync v0.0.0-20220819030929-7fc1605a5dde // indirect
	golang.org/x/sys v0.0.0-20220829200755-d48e67d00261 // indirect
	golang.org/x/text v0.3.7 // indirect
	google.golang.org/protobuf v1.28.1 // indirect
	gopkg.in/natefinch/lumberjack.v2 v2.0.0
	gopkg.in/yaml.v2 v2.4.0 // indirect
	gopkg.in/yaml.v3 v3.0.1
)

require (
	github.com/BurntSushi/toml v1.2.0 // indirect
	github.com/gin-contrib/sse v0.1.0 // indirect
	github.com/go-playground/locales v0.14.0 // indirect
	github.com/go-playground/universal-translator v0.18.0 // indirect
	github.com/goccy/go-json v0.9.11 // indirect
	github.com/montanaflynn/stats v0.6.6 // indirect
	github.com/pelletier/go-toml/v2 v2.0.5 // indirect
	github.com/pkg/errors v0.9.1 // indirect
	github.com/ugorji/go/codec v1.2.7 // indirect
	github.com/xdg-go/pbkdf2 v1.0.0 // indirect
	github.com/xdg-go/scram v1.1.1 // indirect
	github.com/xdg-go/stringprep v1.0.3 // indirect
	golang.org/x/net v0.0.0-20220826154423-83b083e8dc8b // indirect
)
